{
  "Port": 9117,
  "LocalBindAddress": "127.0.0.1",
  "AllowExternal": true,
  "AllowCORS": false,
  "APIKey": "s6veab3i0z4ms0xagn58igijtdhhaynz",
  "AdminPassword": null,
  "InstanceId": "ds7zt4estjmlka47p96d6au94logm420ucij3gpjnchstlhdrn6157ot4nvaddcg",
  "BlackholeDir": "/downloads",
  "UpdateDisabled": false,
  "UpdatePrerelease": false,
  "BasePathOverride": "",
  "BaseUrlOverride": "",
  "CacheEnabled": true,
  "CacheTtl": 2100,
  "CacheMaxResultsPerIndexer": 1000,
  "FlareSolverrUrl": "",
  "FlareSolverrMaxTimeout": 55000,
  "OmdbApiKey": "",
  "OmdbApiUrl": "",
  "ProxyType": -1,
  "ProxyUrl": "",
  "ProxyPort": null,
  "ProxyUsername": "",
  "ProxyPassword": "",
  "ProxyIsAnonymous": true
}